SEAK YE Distance Sampling in R
…
#Join Tables using a full_join
transect <- full_join(nav_sseo, qc_sseo, by = c("Dive", "Seconds"))

Now that the tables have been joined we need to assign good and bad sections of the transect for every second the ROV was moving based on the quality control table. So for example if Dive 1 was considered a good transect from start to end we need to fill in the NAs or blanks for the entire time and label them as good. For this part we use functions from the dplyr package within tidyverse which allows us clean, summarise and manipulate our data. One of the key functions with dplyr is the pipe operator %>% which allows us to chain a bunch of commands.

#Need to fill in missing values in nav table from the quality control so the good and bad sections have time assignments for the entire transect
#fill() function automatically replaces NA values with previous value
#use select() to only keep the necessary columns i.e. Seconds, Dive #, x, y, video quality (good/bad)
transect_qc <- transect %>% fill(Family) %>% filter(!is.na(Family)) %>% 
  select(Seconds, Dive, ROV_X, ROV_Y, Family)

#Check data
transect_qc

## # A tibble: 83,453 x 5
##    Seconds  Dive   ROV_X    ROV_Y Family
##      <dbl> <dbl>   <dbl>    <dbl> <chr> 
##  1   32834     1 538948. 6183502. Good  
##  2   32835     1 538948. 6183502. Good  
##  3   32836     1 538948. 6183502. Good  
##  4   32837     1 538947. 6183498. Good  
##  5   32838     1 538947. 6183498. Good  
##  6   32839     1 538947. 6183498. Good  
##  7   32840     1 538949. 6183500. Good  
##  8   32841     1 538949. 6183500. Good  
##  9   32842     1 538949. 6183500. Good  
## 10   32843     1 538949. 6183499. Good  
## # ... with 83,443 more rows
…
